{
    "/osp/a/idm/auth/oauth2/grant": {
        "target": "http://172.20.20.6:8180",
        "secure": false,
        "pathRewrite": {
            "^/osp/a/idm/auth/oauth2/grant": ""
        }
    }
}

